@startuml
start
partition INIT {
    :task setting (**MODE**, **SET**, **SEQ**);
    :**START**;
}
partition **RUN** {
    while (**END**, reach max trials, reach time limit) is (false)
        if  (stay over 10 minutes?) then (yes)
            :hint user;
        else
            :wait next visit arm;
            if (detect visit an arm) then (correct arm)
                if (food increase mode && correct continuously) then (yes)
                    :give more food;
                else (no)
                    :give food;
                endif
            else (incorrect arm)
            endif

            if (performance reach criteria or over time) then (yes)
                :increase difficulty;
            endif

            :update next correct arm (according to MODE);
        endif
    endwhile
    :print task summary;
}
stop

@enduml
