@startuml
start
partition INIT {
    :task setting (**MODE**, **SEQ**);
    :**START**;
}
partition **RUN** {
    while (**END**, reach max trials, reach time limit) is (false)
        if  (stay over 10 minutes?) then (yes)
            :hint user;
        else
            :wait next visit arm;

            if (food increase mode && correct continuously) then (yes)
                :give more food;
            else (no)
                :give food;
            endif

            :doors control (according to MODE);
            :update next correct arm (according to MODE);
        endif
    endwhile
    :print task summary;
}
stop

@enduml
